{
  "name": "Using fixtures to represent data",
  "email": "hello@cypress.io",
  "body": "Fixtures are a great way to mock data for responses to routes",
  "expected": [
    "Не принято в ВИМИС",
    "Принято в ВИМИС",
    "Принято Нетрикой",
    "Отправлен на проверку в ВИМИС"
  ],
  "baseUrl": "https://mis-test-app.tambov.gov.ru/mon/#/monitoring",

  "myVariable": true

}